The Development of Gender Equality across the World
…
  # Only show the data in 2004 and 2014
  filter(year == 2004 | year == 2014) %>%
  group_by(country) %>%  # Group by country
  # Save the values of different years as two different variables
  pivot_wider(names_from = year,  
              # Keep the values in corresponding variable
              values_from = Gender_ratio_of_mean_years_in_school) %>%
  # Rename the variables
  select("ratio2004" = "2004", "ratio2014" = "2014") %>%
  # Create a new variable to calculate the increase rate 
  mutate(increase_rate = (ratio2014-ratio2004)/ratio2004) %>%
  # Sort by increase rate, greatest-to-least
  arrange(desc(increase_rate))

## # A tibble: 193 x 4
## # Groups:   country [193]
##    country     ratio2004 ratio2014 increase_rate
##    <chr>           <dbl>     <dbl>         <dbl>
##  1 Yemen            25.4      30.1        0.185 
##  2 Nepal            44.2      50.1        0.133 
##  3 Pakistan         50.3      56.4        0.121 
##  4 Djibouti         43.1      48.2        0.118 
##  5 Liberia          54.8      60.9        0.111 
##  6 Chad             30.6      34          0.111 
##  7 Afghanistan      21.4      23.7        0.107 
##  8 Bhutan           44.2      48.7        0.102 
##  9 Guinea           37.4      41.2        0.102 
## 10 Togo             50.7      55.7        0.0986
## # … with 183 more rows

Yemen had the biggest increase from 2004 to 2014 in terms of the gender ratio of mean years in school (women % men).

# Yiyun
# Finally we want to check the differences of proportion of seats held by women in national parliaments of the United States between two subsequent years.
join_data %>% 
  # Only show the data of the United States
  filter(country == "United States") %>%
  # Create a new variable to calculate the difference between two subsequent years
  mutate(poshbwinp_change = Proportion_of_seats_held_by_women_in_national_parliaments - lag(Proportion_of_seats_held_by_women_in_national_parliaments)) %>%
  select(1, 2, 11)  # Only show the relevant variables

## # A tibble: 24 x 3
##    country       year  poshbwinp_change
##    <chr>         <chr>            <dbl>
##  1 United States 1996            NA    
##  2 United States 1997             0    
##  3 United States 1998             1.6  
##  4 United States 1999            NA    
##  5 United States 2000            NA    
##  6 United States 2001            -0.200
##  7 United States 2002             0.5  
##  8 United States 2003             0.600
##  9 United States 2004             0.300
## 10 United States 2005             1.1  
## # … with 14 more rows
…
